Removed Pin From Net: NetName=NetB1_1 Pin=B1-1
Removed Pin From Net: NetName=NetB2_1 Pin=B2-1
Removed Pin From Net: NetName=NetL200_1 Pin=Q+-1
Removed Pin From Net: NetName=NetL201_1 Pin=Q--1
Removed Member From Class: ClassName=E_UC_V00 Member=A1
Removed Member From Class: ClassName=E_UC_V00 Member=A2
Removed Member From Class: ClassName=E_UC_V00 Member=B1
Removed Member From Class: ClassName=E_UC_V00 Member=B2
Removed Member From Class: ClassName=E_UC_V00 Member=PS
Removed Member From Class: ClassName=E_UC_V00 Member=Q+
Removed Member From Class: ClassName=E_UC_V00 Member=Q-
Change Component Comment : Designator=IC2 Old Comment=ATMEGA88PA-AU New Comment=ATMEGA168PA-AU
Added Component: Designator=X?(JST-SJN_7pol)
Added Pin To Net: NetName=NetL201_1 Pin=X?-2
Added Pin To Net: NetName=NetL200_1 Pin=X?-3
Added Pin To Net: NetName=NetB2_1 Pin=X?-4
Added Pin To Net: NetName=NetB1_1 Pin=X?-5
Change Net Name : Old Net Name=NetB1_1 New Net Name=NetV108_5
Change Net Name : Old Net Name=NetB2_1 New Net Name=NetV108_7
Added Pin To Net: NetName=NetL2_1 Pin=L2-1
Added Pin To Net: NetName=NetL2_1 Pin=X?-7
Added Net: Name=NetL2_1
Added Pin To Net: NetName=NetL3_1 Pin=L3-1
Added Pin To Net: NetName=NetL3_1 Pin=X?-6
Added Net: Name=NetL3_1
Added Pin To Net: NetName=NetR300_1 Pin=R300-1
Added Pin To Net: NetName=NetR300_1 Pin=X?-1
Added Net: Name=NetR300_1
Added Member To Class: ClassName=E_UC_V00 Member=Component X? STL7X1
