Removed Pin From Net: NetName=NetC3_2 Pin=Rdp-1
Removed Pin From Net: NetName=NetC1_2 Pin=Rdp-2
Change Component Footprint: Designator=V300 Old Footprint=MiniMELF New Footprint=D0603N
Change Component Footprint: Designator=V301 Old Footprint=SMB New Footprint=SMA
Added Component: Designator=Rdp(R0402N)
Added Pin To Net: NetName=NetC3_2 Pin=Rdp-1
Added Pin To Net: NetName=NetC1_2 Pin=Rdp-2
Added Member To Class: ClassName=E_UC_V00 Member=Component Rdp 0R
