Change Component DesignItemId : Designator=V105 Old DesignItemId=SS14L New DesignItemId=LL4148
Change Component DesignItemId : Designator=V106 Old DesignItemId=SS14L New DesignItemId=LL4148
Change Component Footprint: Designator=V105 Old Footprint=DO219AB/SUB SMA New Footprint=D0603N
Change Component Footprint: Designator=V106 Old Footprint=DO219AB/SUB SMA New Footprint=D0603N
Change Component Comment : Designator=R110 Old Comment=100K New Comment=100R
Change Component Comment : Designator=V105 Old Comment=SS14L New Comment=LL4148
Change Component Comment : Designator=V106 Old Comment=SS14L New Comment=LL4148
Added Member To Class: ClassName=E_UC_V00 Member=Component C205 100N
Added Member To Class: ClassName=E_UC_V00 Member=Component  MCP601
