Removed Pin From Net: NetName=GND Pin=C103-2
Removed Pin From Net: NetName=GND Pin=C104-1
Removed Pin From Net: NetName=GND Pin=C105-2
Removed Pin From Net: NetName=VCC Pin=C106-+
Removed Pin From Net: NetName=GND Pin=C106--
Removed Pin From Net: NetName=VCC Pin=L1-2
Removed Pin From Net: NetName=VAOUT Pin=R101-2
Removed Pin From Net: NetName=VCC Pin=R103-2
Removed Pin From Net: NetName=GND Pin=R104-1
Removed Pin From Net: NetName=NetC3_2 Pin=Rdp-1
Removed Pin From Net: NetName=NetC1_2 Pin=Rdp-2
Removed Pin From Net: NetName=GND Pin=U100-4
Removed Pin From Net: NetName=VAOUT Pin=V2-C
Removed Pin From Net: NetName=VAOUT Pin=V2-C
Removed Pin From Net: NetName=GND Pin=V3-A
Removed Pin From Net: NetName=GND Pin=V5-A
Removed Member From Class: ClassName=E_UC_V00 Member=C103
Removed Member From Class: ClassName=E_UC_V00 Member=C104
Removed Member From Class: ClassName=E_UC_V00 Member=C105
Removed Member From Class: ClassName=E_UC_V00 Member=C106
Removed Member From Class: ClassName=E_UC_V00 Member=L1
Removed Member From Class: ClassName=E_UC_V00 Member=R101
Removed Member From Class: ClassName=E_UC_V00 Member=R102
Removed Member From Class: ClassName=E_UC_V00 Member=R103
Removed Member From Class: ClassName=E_UC_V00 Member=R104
Removed Member From Class: ClassName=E_UC_V00 Member=U100
Removed Member From Class: ClassName=E_UC_V00 Member=V2
Removed Member From Class: ClassName=E_UC_V00 Member=V3
Removed Member From Class: ClassName=E_UC_V00 Member=V5
Added Component: Designator=Rdp(R0402N)
Added Component: Designator=U?(SOT223-IGO)
Added Pin To Net: NetName=NetC3_2 Pin=Rdp-1
Added Pin To Net: NetName=NetC1_2 Pin=Rdp-2
Added Pin To Net: NetName=GND Pin=U?-GND
Added Pin To Net: NetName=GND Pin=U?-GND
Added Pin To Net: NetName=VAOUT Pin=U?-IN
Added Pin To Net: NetName=VCC Pin=U?-OUT
Added Member To Class: ClassName=E_UC_V00 Member=Component Rdp 0R
Added Member To Class: ClassName=E_UC_V00 Member=Component U? MIC2954
Added Room: Name=E_UC_V00
