Removed Pin From Net: NetName=NetC3_2 Pin=Rdp-1
Removed Pin From Net: NetName=NetC1_2 Pin=Rdp-2
Added Component: Designator=Rdp(R0402N)
Added Component: Designator=V108(SO8N)
Added Pin To Net: NetName=NetC3_2 Pin=Rdp-1
Added Pin To Net: NetName=NetC1_2 Pin=Rdp-2
Added Pin To Net: NetName=NetC110_2 Pin=V108-1
Added Pin To Net: NetName=NetC108_1 Pin=V108-2
Added Pin To Net: NetName=NetC110_2 Pin=V108-3
Added Pin To Net: NetName=NetC108_1 Pin=V108-4
Added Pin To Net: NetName=NetF101_2 Pin=V108-5
Added Pin To Net: NetName=NetF101_2 Pin=V108-6
Added Pin To Net: NetName=NetV108_7 Pin=V108-7
Added Pin To Net: NetName=NetV108_7 Pin=V108-8
Added Member To Class: ClassName=E_UC_V00 Member=Component Rdp 0R
Added Member To Class: ClassName=E_UC_V00 Member=Component V108 SI9945BDY
