Removed Pin From Net: NetName=NetA1_1 Pin=F1-1
Removed Pin From Net: NetName=NetC100_1 Pin=L2-2
Removed Pin From Net: NetName=NetC3_2 Pin=Rdp-1
Removed Pin From Net: NetName=NetC1_2 Pin=Rdp-2
Added Component: Designator=Rdp(R0402N)
Added Pin To Net: NetName=NetC100_1 Pin=F1-2
Added Pin To Net: NetName=NetA1_1 Pin=L2-1
Added Pin To Net: NetName=NetC3_2 Pin=Rdp-1
Added Pin To Net: NetName=NetC1_2 Pin=Rdp-2
Added Pin To Net: NetName=NetF1_1 Pin=F1-1
Added Pin To Net: NetName=NetF1_1 Pin=R100-2
Added Net: Name=NetF1_1
Added Pin To Net: NetName=NetL2_2 Pin=L2-2
Added Pin To Net: NetName=NetL2_2 Pin=R100-1
Added Net: Name=NetL2_2
Added Member To Class: ClassName=E_UC_V00 Member=Component Rdp 0R
