Removed Pin From Net: NetName=NetC3_2 Pin=Rdp-1
Removed Pin From Net: NetName=NetC1_2 Pin=Rdp-2
Change Component Comment : Designator=V3 Old Comment=ZMM006.8 New Comment=14V
Added Component: Designator=Rdp(R0402N)
Added Pin To Net: NetName=NetC3_2 Pin=Rdp-1
Added Pin To Net: NetName=NetC1_2 Pin=Rdp-2
Added Member To Class: ClassName=E_UC_V00 Member=Component C102A 100U
Added Member To Class: ClassName=E_UC_V00 Member=Component Rdp 0R
Added Member To Class: ClassName=E_UC_V00 Member=Component  LP2985
Added Member To Class: ClassName=E_UC_V00 Member=Component V2 BC817-40
Added Member To Class: ClassName=E_UC_V00 Member=Component V3 14V
Added Room: Name=E_UC_V00
