Removed Pin From Net: NetName=NetC3_2 Pin=Rdp-1
Removed Pin From Net: NetName=NetC1_2 Pin=Rdp-2
Added Component: Designator=Rdp(R0402N)
Added Component: Designator=TP12(TPAD-C15)
Added Pin To Net: NetName=NetC3_2 Pin=Rdp-1
Added Pin To Net: NetName=NetC1_2 Pin=Rdp-2
Added Pin To Net: NetName=Net_1 Pin=TP12-1
Added Member To Class: ClassName=E_UC_V00 Member=Component Rdp 0R
Added Member To Class: ClassName=E_UC_V00 Member=Component TP12 TP
