Added Component: Designator=TP5A(TPAD-C10)
Added Component: Designator=TP6A(TPAD-C10)
Added Component: Designator=TP7A(TPAD-C10)
Added Component: Designator=TP8A(TPAD-C10)
Added Pin To Net: NetName=/RESET Pin=TP5A-1
Added Pin To Net: NetName=NetIC2_15 Pin=TP6A-1
Added Pin To Net: NetName=NetIC2_16 Pin=TP7A-1
Added Pin To Net: NetName=SCK Pin=TP8A-1
Added Member To Class: ClassName=E_UC_V00 Member=Component TP5A TP
Added Member To Class: ClassName=E_UC_V00 Member=Component TP6A TP
Added Member To Class: ClassName=E_UC_V00 Member=Component TP7A TP
Added Member To Class: ClassName=E_UC_V00 Member=Component TP8A TP
