Removed Pin From Net: NetName=NetC3_2 Pin=Rdp-1
Removed Pin From Net: NetName=NetC1_2 Pin=Rdp-2
Added Component: Designator=C102A(CE-R13_L23ax)
Added Component: Designator=Rdp(R0402N)
Added Pin To Net: NetName=VAOUT Pin=C102A-+
Added Pin To Net: NetName=GND Pin=C102A--
Added Pin To Net: NetName=NetC3_2 Pin=Rdp-1
Added Pin To Net: NetName=NetC1_2 Pin=Rdp-2
Added Member To Class: ClassName=E_UC_V00 Member=Component C102A 100U
Added Member To Class: ClassName=E_UC_V00 Member=Component Rdp 0R
