Removed Pin From Net: NetName=3V Pin=R111-1
Removed Member From Class: ClassName=E_UC_V00 Member=R111
Added Pin To Net: NetName=3V Pin=C18-1
Added Pin To Net: NetName=3V Pin=IC2-4
Added Pin To Net: NetName=3V Pin=IC2-6
