Change Component Footprint: Designator=V2 Old Footprint=SOT23-CBE New Footprint=SOT23-CBE - Kremser
Change Component Footprint: Designator=V100 Old Footprint=SOT23-CBE New Footprint=SOT23-CBE - Kremser
Change Component Footprint: Designator=V101 Old Footprint=SOT23-CBE New Footprint=SOT23-CBE - Kremser
Change Component Footprint: Designator=V102 Old Footprint=SOT23-CBE New Footprint=SOT23-CBE - Kremser
Change Component Footprint: Designator=V201 Old Footprint=SOT23-CBE New Footprint=SOT23-CBE - Kremser
Change Component Footprint: Designator=V302 Old Footprint=SOT23-CBE New Footprint=SOT23-CBE - Kremser
Change Component Comment : Designator=IC2 Old Comment=ATMEGA168PA-AU New Comment=ATMEGA168A-AU
Change Component Comment : Designator=V301 Old Comment=P6SMB51CA New Comment=P4SMA51CA
Change Class Name : Old Net Name=E_UC_V00 New Net Name=E_UC_V01
Added Room: Name=E_UC_V01
