M48
;Layer_Color=9474304
;FILE_FORMAT=2:3
INCH
;TYPE=PLATED
T1F00S00C0.012
T2F00S00C0.031
T3F00S00C0.035
T4F00S00C0.039
T5F00S00C0.087
T6F00S00C0.197
%
T01
X01246Y00404
X01331Y00608
X01429
X01455Y00821
X01445Y00866
X01559Y00896
X01746Y00565
X02122Y00705
X02031Y00207
X01937Y00195
X01943Y00035
X00581Y00055
X00563Y00352
X00579Y00431
Y00549
X00531Y00626
X00541Y00791
X00579Y00756
X00358Y00797
X00331Y00835
X00289Y00850
X00258Y00829
X00234Y00797
X00154Y00803
X00152Y00866
X00185Y00837
X00028Y00764
X00094Y00648
X00262Y00620
X00388Y00545
X00394Y00404
X00463Y00437
X00276Y00325
X00295Y00112
X00136Y00490
X00152Y00906
X00270Y00947
X00297Y01002
X00232Y01014
X00165Y01130
X00039Y01055
X00366Y01136
X00518Y01020
X00553Y00915
X00614Y01508
X00606Y01762
X00693Y01848
X00736Y01846
X00780
X00852Y01354
X00978
X00986Y01398
X01055Y01362
X01108Y01535
Y01620
X01104Y01728
X01018Y01868
X01240Y00913
X01650Y01075
X02022Y00923
T02
X02006Y00372
X02203
X00852Y01563
Y01705
X00994Y01563
T03
X01213Y00173
X01292
X01370
X01449
X01528
X01607
X01685
T04
X00801Y01209
Y01217
Y01224
Y01232
Y01240
X00801Y01248
Y01256
Y01264
X01045Y01264
Y01256
Y01248
X01045Y01240
Y01232
Y01225
Y01217
Y01209
T05
X01098Y00394
Y00571
X00748
Y00394
T06
X00293Y01260
X01551
X02075
M30
