%FSAX43Y43*%
%MOMM*%
G71*
G01*
G75*
G04 Layer_Physical_Order=2*
G04 Layer_Color=16711680*
%ADD10C,0.203*%
%ADD11R,2.160X2.260*%
%ADD12R,2.260X2.160*%
%ADD13R,1.800X2.400*%
%ADD14R,1.200X0.800*%
%ADD15R,0.800X1.200*%
%ADD16R,1.400X1.300*%
%ADD17R,1.150X1.450*%
%ADD18R,0.600X1.500*%
%ADD19C,2.000*%
%ADD20R,0.550X0.650*%
%ADD21R,0.650X0.550*%
%ADD22R,0.600X0.650*%
%ADD23R,1.450X1.150*%
%ADD24R,0.950X1.000*%
%ADD25R,1.000X0.800*%
%ADD26C,0.800*%
%ADD27R,0.530X1.600*%
%ADD28R,1.600X0.530*%
%ADD29R,0.650X0.600*%
%ADD30R,0.800X0.800*%
%ADD31P,1.131X4X270.0*%
%ADD32R,0.900X0.700*%
G04:AMPARAMS|DCode=33|XSize=1.15mm|YSize=1.45mm|CornerRadius=0mm|HoleSize=0mm|Usage=FLASHONLY|Rotation=135.000|XOffset=0mm|YOffset=0mm|HoleType=Round|Shape=Rectangle|*
%AMROTATEDRECTD33*
4,1,4,0.919,0.106,-0.106,-0.919,-0.919,-0.106,0.106,0.919,0.919,0.106,0.0*
%
%ADD33ROTATEDRECTD33*%

%ADD34R,1.800X1.150*%
%ADD35C,1.500*%
%ADD36R,1.250X1.500*%
%ADD37R,1.000X0.950*%
%ADD38R,1.150X1.800*%
%ADD39R,0.800X1.000*%
%ADD40R,2.200X3.600*%
%ADD41R,2.200X1.200*%
%ADD42O,0.630X2.200*%
%ADD43O,0.630X2.200*%
%ADD44R,0.400X1.000*%
%ADD45C,0.300*%
%ADD46C,0.500*%
%ADD47C,0.400*%
%ADD48C,0.200*%
%ADD49C,0.250*%
%ADD50C,0.220*%
%ADD51C,0.230*%
%ADD52C,0.150*%
%ADD53C,1.600*%
%ADD54R,1.600X1.600*%
G04:AMPARAMS|DCode=55|XSize=1.2mm|YSize=2mm|CornerRadius=0.3mm|HoleSize=0mm|Usage=FLASHONLY|Rotation=0.000|XOffset=0mm|YOffset=0mm|HoleType=Round|Shape=RoundedRectangle|*
%AMROUNDEDRECTD55*
21,1,1.200,1.400,0,0,0.0*
21,1,0.600,2.000,0,0,0.0*
1,1,0.600,0.300,-0.700*
1,1,0.600,-0.300,-0.700*
1,1,0.600,-0.300,0.700*
1,1,0.600,0.300,0.700*
%
%ADD55ROUNDEDRECTD55*%
%ADD56C,1.800*%
%ADD57C,1.000*%
G36*
X0024420Y0051352D02*
X0025381Y0051209D01*
X0026324Y0050973D01*
X0027238Y0050646D01*
X0028116Y0050230D01*
X0028950Y0049731D01*
X0029730Y0049152D01*
X0030450Y0048500D01*
X0031102Y0047780D01*
X0031681Y0047000D01*
X0032180Y0046166D01*
X0032596Y0045288D01*
X0032923Y0044374D01*
X0033159Y0043431D01*
X0033302Y0042470D01*
X0033349Y0041500D01*
X0033302Y0040530D01*
X0033159Y0039569D01*
X0032923Y0038626D01*
X0032596Y0037712D01*
X0032180Y0036834D01*
X0031681Y0036000D01*
X0031102Y0035220D01*
X0030450Y0034500D01*
X0029730Y0033848D01*
X0028950Y0033269D01*
X0028584Y0033050D01*
X0027814D01*
X0027766Y0033167D01*
X0029516Y0034918D01*
X0029583Y0035017D01*
X0029606Y0035134D01*
X0029606Y0035134D01*
X0029606Y0035134D01*
Y0035134D01*
Y0042950D01*
X0029583Y0043067D01*
X0029556Y0043107D01*
X0029516Y0043166D01*
X0029516Y0043166D01*
X0028632Y0044051D01*
X0028615Y0044134D01*
X0028483Y0044333D01*
X0028284Y0044465D01*
X0028050Y0044512D01*
X0027816Y0044465D01*
X0027617Y0044333D01*
X0027485Y0044134D01*
X0027438Y0043900D01*
X0027485Y0043666D01*
X0027617Y0043467D01*
X0027816Y0043335D01*
X0028050Y0043288D01*
X0028284Y0043335D01*
X0028403Y0043414D01*
X0028994Y0042823D01*
Y0040919D01*
X0028877Y0040870D01*
X0028734Y0041013D01*
X0028762Y0041150D01*
X0028715Y0041384D01*
X0028583Y0041583D01*
X0028384Y0041715D01*
X0028150Y0041762D01*
X0027916Y0041715D01*
X0027717Y0041583D01*
X0027585Y0041384D01*
X0027538Y0041150D01*
X0027585Y0040916D01*
X0027717Y0040717D01*
X0027916Y0040585D01*
X0028150Y0040538D01*
X0028287Y0040566D01*
X0028584Y0040269D01*
Y0039566D01*
X0028472Y0039507D01*
X0028384Y0039565D01*
X0028150Y0039612D01*
X0027916Y0039565D01*
X0027717Y0039433D01*
X0027585Y0039234D01*
X0027538Y0039000D01*
X0027585Y0038766D01*
X0027717Y0038567D01*
X0027884Y0038456D01*
Y0035198D01*
X0027484Y0034798D01*
X0027365Y0034834D01*
X0027233Y0035033D01*
X0027034Y0035165D01*
X0026950Y0035182D01*
Y0034600D01*
X0026800D01*
Y0034450D01*
X0026218D01*
X0026235Y0034366D01*
X0026264Y0034323D01*
X0026204Y0034211D01*
X0025524D01*
X0025444Y0034309D01*
X0025462Y0034400D01*
X0025415Y0034634D01*
X0025283Y0034833D01*
X0025266Y0034844D01*
X0025284Y0034935D01*
X0025483Y0035067D01*
X0025615Y0035266D01*
X0025662Y0035500D01*
X0025615Y0035734D01*
X0025483Y0035933D01*
X0025284Y0036065D01*
X0025050Y0036112D01*
X0024816Y0036065D01*
X0024617Y0035933D01*
X0024485Y0035734D01*
X0024438Y0035500D01*
X0024460Y0035390D01*
X0023723Y0034654D01*
X0023606Y0034702D01*
Y0035547D01*
X0023582Y0035668D01*
X0023513Y0035771D01*
X0023022Y0036263D01*
X0022978Y0036328D01*
X0022272Y0037034D01*
X0022164Y0037106D01*
X0022143Y0037110D01*
X0022037Y0037131D01*
X0018908D01*
X0016879Y0039160D01*
X0016819Y0039249D01*
X0015881Y0040187D01*
Y0043713D01*
X0018497Y0046329D01*
X0018700Y0046288D01*
X0018934Y0046335D01*
X0019133Y0046467D01*
X0019187Y0046548D01*
X0019313D01*
X0019367Y0046467D01*
X0019566Y0046335D01*
X0019650Y0046318D01*
Y0046900D01*
X0019800D01*
Y0047050D01*
X0020382D01*
X0020372Y0047102D01*
X0020484Y0047162D01*
X0021293Y0046352D01*
Y0044180D01*
X0021171Y0044130D01*
X0020972Y0043978D01*
X0020820Y0043779D01*
X0020724Y0043548D01*
X0020692Y0043300D01*
X0020724Y0043052D01*
X0020820Y0042821D01*
X0020972Y0042622D01*
X0021171Y0042470D01*
X0021402Y0042374D01*
X0021650Y0042342D01*
X0021898Y0042374D01*
X0022129Y0042470D01*
X0022328Y0042622D01*
X0022480Y0042821D01*
X0022576Y0043052D01*
X0022608Y0043300D01*
X0022576Y0043548D01*
X0022480Y0043779D01*
X0022328Y0043978D01*
X0022129Y0044130D01*
X0022007Y0044180D01*
Y0046500D01*
X0021980Y0046637D01*
X0021902Y0046752D01*
X0020802Y0047852D01*
X0020687Y0047930D01*
X0020550Y0047957D01*
X0018250D01*
X0018113Y0047930D01*
X0017998Y0047852D01*
X0017689Y0047544D01*
X0017600Y0047562D01*
X0017366Y0047515D01*
X0017167Y0047383D01*
X0017117Y0047307D01*
X0016250D01*
X0016113Y0047280D01*
X0015998Y0047202D01*
X0014765Y0045970D01*
X0014661Y0046043D01*
X0014720Y0046166D01*
X0015219Y0047000D01*
X0015798Y0047780D01*
X0016450Y0048500D01*
X0017170Y0049152D01*
X0017950Y0049731D01*
X0018784Y0050230D01*
X0019662Y0050646D01*
X0020576Y0050973D01*
X0021519Y0051209D01*
X0022480Y0051352D01*
X0023450Y0051399D01*
X0024420Y0051352D01*
D02*
G37*
G36*
X0005898Y0028398D02*
X0006013Y0028320D01*
X0006150Y0028293D01*
X0008550D01*
X0008687Y0028320D01*
X0008802Y0028398D01*
X0008802Y0028398D01*
X0008802Y0028398D01*
X0008826Y0028421D01*
X0008867Y0028417D01*
X0009066Y0028285D01*
X0009300Y0028238D01*
X0009534Y0028285D01*
X0009733Y0028417D01*
X0009865Y0028616D01*
X0009912Y0028850D01*
X0009947Y0028893D01*
X0012202D01*
X0012410Y0028685D01*
X0012328Y0028487D01*
X0012291Y0028200D01*
X0012328Y0027913D01*
X0012439Y0027645D01*
X0012615Y0027415D01*
X0012845Y0027239D01*
X0012941Y0027199D01*
Y0027050D01*
X0012941Y0027050D01*
X0012941D01*
X0012976Y0026874D01*
X0013076Y0026726D01*
X0013171Y0026630D01*
X0013134Y0026509D01*
X0012916Y0026465D01*
X0012717Y0026333D01*
X0012585Y0026134D01*
X0012538Y0025900D01*
X0012585Y0025666D01*
X0012717Y0025467D01*
X0012916Y0025335D01*
X0013150Y0025288D01*
X0013287Y0025316D01*
X0013927Y0024677D01*
X0014029Y0024608D01*
X0014150Y0024584D01*
X0020700D01*
X0020821Y0024608D01*
X0020924Y0024677D01*
X0021847Y0025600D01*
X0022088D01*
X0022137Y0025483D01*
X0020605Y0023951D01*
X0014772D01*
X0014564Y0024159D01*
X0014456Y0024231D01*
X0014435Y0024235D01*
X0014419Y0024239D01*
X0014392Y0024256D01*
X0014371Y0024260D01*
X0014266Y0024281D01*
X0013087D01*
X0012384Y0024984D01*
X0012277Y0025056D01*
X0012256Y0025060D01*
X0012150Y0025081D01*
X0009587D01*
X0007909Y0026759D01*
X0007802Y0026831D01*
X0007781Y0026835D01*
X0007675Y0026856D01*
X0005155D01*
X0004980Y0027085D01*
X0004750Y0027261D01*
X0004482Y0027372D01*
X0004195Y0027409D01*
X0003908Y0027372D01*
X0003640Y0027261D01*
X0003411Y0027085D01*
X0003234Y0026855D01*
X0003135Y0026616D01*
X0001900D01*
X0001779Y0026592D01*
X0001676Y0026524D01*
X0001577Y0026623D01*
X0001582Y0026650D01*
X0001150D01*
Y0026218D01*
X0001211Y0026230D01*
X0001271Y0026118D01*
X0000274Y0025121D01*
X0000157Y0025170D01*
Y0027152D01*
X0002048Y0029043D01*
X0003577D01*
X0003635Y0028934D01*
X0003618Y0028850D01*
X0004782D01*
X0004765Y0028934D01*
X0004823Y0029043D01*
X0005252D01*
X0005898Y0028398D01*
D02*
G37*
G36*
X0015750Y0037718D02*
X0015834Y0037735D01*
X0016033Y0037867D01*
X0016165Y0038066D01*
X0016189Y0038188D01*
X0016311Y0038225D01*
X0018420Y0036116D01*
X0018528Y0036044D01*
X0018655Y0036019D01*
X0021785D01*
X0022477Y0035327D01*
X0022542Y0035283D01*
X0022604Y0035221D01*
Y0033050D01*
X0022316D01*
Y0034050D01*
X0022292Y0034171D01*
X0022234Y0034258D01*
X0022262Y0034400D01*
X0022215Y0034634D01*
X0022083Y0034833D01*
X0021884Y0034965D01*
X0021650Y0035012D01*
X0021416Y0034965D01*
X0021217Y0034833D01*
X0021085Y0034634D01*
X0021038Y0034400D01*
X0021085Y0034166D01*
X0021135Y0034091D01*
X0021037Y0034010D01*
X0020778Y0034269D01*
X0020734Y0034334D01*
X0020627Y0034406D01*
X0020500Y0034431D01*
X0019628D01*
X0019500Y0034457D01*
X0018298D01*
X0014957Y0037798D01*
Y0037964D01*
X0015078Y0038001D01*
X0015167Y0037867D01*
X0015366Y0037735D01*
X0015450Y0037718D01*
Y0038300D01*
X0015750D01*
Y0037718D01*
D02*
G37*
G36*
X0044240Y0030440D02*
X0044261Y0030425D01*
X0044470Y0030254D01*
X0044730Y0030115D01*
X0045013Y0030029D01*
X0045197Y0030011D01*
X0045300Y0029990D01*
X0047567D01*
X0047583Y0029987D01*
Y0029990D01*
X0047877Y0030019D01*
X0048159Y0030104D01*
X0048420Y0030244D01*
X0048629Y0030415D01*
X0048650Y0030429D01*
X0049211Y0030990D01*
X0049871D01*
X0050019Y0030634D01*
X0050265Y0030231D01*
X0050572Y0029872D01*
X0050931Y0029565D01*
X0051334Y0029319D01*
X0051770Y0029138D01*
X0052229Y0029028D01*
X0052700Y0028991D01*
X0053171Y0029028D01*
X0053630Y0029138D01*
X0054066Y0029319D01*
X0054469Y0029565D01*
X0054828Y0029872D01*
X0055135Y0030231D01*
X0055381Y0030634D01*
X0055529Y0030990D01*
X0057351D01*
X0058590Y0029751D01*
Y0000510D01*
X0051990D01*
X0051000Y0001500D01*
Y0004849D01*
X0051122Y0004886D01*
X0051167Y0004817D01*
X0051366Y0004685D01*
X0051450Y0004668D01*
Y0005100D01*
X0051018D01*
X0051030Y0005042D01*
X0050918Y0004982D01*
X0050100Y0005800D01*
Y0007200D01*
X0038155D01*
X0037479Y0007876D01*
X0037527Y0007993D01*
X0049850D01*
X0049987Y0008020D01*
X0050102Y0008098D01*
X0050455Y0008450D01*
X0051950D01*
Y0010450D01*
X0049950D01*
Y0008955D01*
X0049702Y0008707D01*
X0037284D01*
X0037239Y0008752D01*
X0037123Y0008830D01*
X0036986Y0008857D01*
X0028743D01*
X0028702Y0008977D01*
X0028827Y0009073D01*
X0029036Y0009344D01*
X0029167Y0009661D01*
X0029211Y0010000D01*
X0029167Y0010339D01*
X0029036Y0010656D01*
X0028827Y0010927D01*
X0028556Y0011136D01*
X0028239Y0011267D01*
X0027900Y0011311D01*
X0027561Y0011267D01*
X0027244Y0011136D01*
X0026973Y0010927D01*
X0026764Y0010656D01*
X0026633Y0010339D01*
X0026589Y0010000D01*
X0026633Y0009661D01*
X0026764Y0009344D01*
X0026973Y0009073D01*
X0027098Y0008977D01*
X0027057Y0008857D01*
X0019843D01*
X0019802Y0008977D01*
X0019927Y0009073D01*
X0020136Y0009344D01*
X0020267Y0009661D01*
X0020311Y0010000D01*
X0020267Y0010339D01*
X0020136Y0010656D01*
X0019927Y0010927D01*
X0019656Y0011136D01*
X0019339Y0011267D01*
X0019000Y0011311D01*
X0018661Y0011267D01*
X0018344Y0011136D01*
X0018073Y0010927D01*
X0017864Y0010656D01*
X0017733Y0010339D01*
X0017689Y0010000D01*
X0017733Y0009661D01*
X0017864Y0009344D01*
X0018073Y0009073D01*
X0018198Y0008977D01*
X0018157Y0008857D01*
X0015648D01*
X0015457Y0009048D01*
Y0010550D01*
X0015430Y0010687D01*
X0015352Y0010802D01*
X0015294Y0010861D01*
X0015312Y0010950D01*
X0015265Y0011184D01*
X0015133Y0011383D01*
X0014934Y0011515D01*
X0014700Y0011562D01*
X0014466Y0011515D01*
X0014267Y0011383D01*
X0014135Y0011184D01*
X0014088Y0010950D01*
X0014135Y0010716D01*
X0014267Y0010517D01*
X0014466Y0010385D01*
X0014700Y0010338D01*
X0014743Y0010303D01*
Y0009510D01*
X0014631Y0009450D01*
X0014534Y0009515D01*
X0014300Y0009562D01*
X0014066Y0009515D01*
X0013867Y0009383D01*
X0013735Y0009184D01*
X0013688Y0008950D01*
X0013735Y0008716D01*
X0013867Y0008517D01*
X0014066Y0008385D01*
X0014300Y0008338D01*
X0014389Y0008356D01*
X0014948Y0007798D01*
X0015063Y0007720D01*
X0015200Y0007693D01*
X0015950D01*
Y0005841D01*
X0015947Y0005837D01*
X0015807Y0005577D01*
X0015722Y0005294D01*
X0015693Y0005005D01*
X0015692Y0005000D01*
X0015690D01*
X0015691Y0004995D01*
X0015690Y0004990D01*
Y0001711D01*
X0015460Y0001481D01*
X0015338Y0001518D01*
X0015315Y0001634D01*
X0015183Y0001833D01*
X0014984Y0001965D01*
X0014900Y0001982D01*
Y0001400D01*
X0014750D01*
Y0001250D01*
X0014168D01*
X0014185Y0001166D01*
X0014317Y0000967D01*
X0014516Y0000835D01*
X0014632Y0000812D01*
X0014669Y0000690D01*
X0014489Y0000510D01*
X0000510D01*
Y0004500D01*
X0000500Y0004550D01*
X0000479Y0004764D01*
X0000393Y0005047D01*
X0000254Y0005307D01*
X0000066Y0005536D01*
X-0000162Y0005723D01*
X-0000423Y0005863D01*
X-0000490Y0005883D01*
Y0011289D01*
X0000368Y0012147D01*
X0000382Y0012168D01*
X0000553Y0012377D01*
X0000693Y0012637D01*
X0000778Y0012920D01*
X0000807Y0013214D01*
X0000810D01*
X0000805Y0013240D01*
Y0016856D01*
X0000806D01*
X0000761Y0017195D01*
X0000630Y0017511D01*
X0000422Y0017783D01*
X0000421Y0017782D01*
X0000421Y0017782D01*
X-0000491Y0018694D01*
Y0019820D01*
X-0000374Y0019869D01*
X0000109Y0019387D01*
X0000153Y0019166D01*
X0000285Y0018967D01*
X0000484Y0018835D01*
X0000718Y0018788D01*
X0000952Y0018835D01*
X0001150Y0018967D01*
X0001283Y0019166D01*
X0001326Y0019383D01*
X0001401Y0019414D01*
X0001454Y0019425D01*
X0001479Y0019408D01*
X0001600Y0019384D01*
X0003200D01*
X0003321Y0019408D01*
X0003424Y0019476D01*
X0003763Y0019816D01*
X0003900Y0019788D01*
X0004134Y0019835D01*
X0004282Y0019934D01*
X0004354Y0019895D01*
X0004368Y0019769D01*
X0004300Y0019709D01*
X0004013Y0019672D01*
X0003745Y0019561D01*
X0003515Y0019385D01*
X0003339Y0019155D01*
X0003228Y0018887D01*
X0003191Y0018600D01*
X0003228Y0018313D01*
X0003339Y0018045D01*
X0003515Y0017815D01*
X0003745Y0017639D01*
X0004013Y0017528D01*
X0004300Y0017491D01*
X0004587Y0017528D01*
X0004855Y0017639D01*
X0005085Y0017815D01*
X0005261Y0018045D01*
X0005372Y0018313D01*
X0005409Y0018600D01*
X0005372Y0018887D01*
X0005261Y0019155D01*
X0005085Y0019385D01*
X0005006Y0019445D01*
Y0020733D01*
X0005133Y0020817D01*
X0005265Y0021016D01*
X0005312Y0021250D01*
X0005265Y0021484D01*
X0005133Y0021683D01*
X0004934Y0021815D01*
X0004700Y0021862D01*
X0004535Y0021829D01*
X0004446Y0021919D01*
X0004462Y0022000D01*
X0004415Y0022234D01*
X0004283Y0022433D01*
X0004277Y0022437D01*
Y0022563D01*
X0004283Y0022567D01*
X0004415Y0022766D01*
X0004462Y0023000D01*
X0004415Y0023234D01*
X0004283Y0023433D01*
X0004084Y0023565D01*
X0003850Y0023612D01*
X0003616Y0023565D01*
X0003417Y0023433D01*
X0003346Y0023326D01*
X0003220Y0023313D01*
X0002853Y0023680D01*
X0002867Y0023713D01*
X0002905Y0024000D01*
X0002867Y0024287D01*
X0002756Y0024555D01*
X0002580Y0024785D01*
X0002350Y0024961D01*
X0002082Y0025072D01*
X0001795Y0025109D01*
X0001508Y0025072D01*
X0001240Y0024961D01*
X0001011Y0024785D01*
X0000927Y0024880D01*
X0002031Y0025984D01*
X0003135D01*
X0003234Y0025745D01*
X0003411Y0025515D01*
X0003640Y0025339D01*
X0003908Y0025228D01*
X0004195Y0025191D01*
X0004482Y0025228D01*
X0004750Y0025339D01*
X0004980Y0025515D01*
X0005156Y0025745D01*
X0005162Y0025760D01*
X0005289Y0025748D01*
X0005335Y0025516D01*
X0005467Y0025317D01*
X0005666Y0025185D01*
X0005750Y0025168D01*
Y0025750D01*
X0005900D01*
Y0025900D01*
X0006482D01*
X0006465Y0025984D01*
X0006400Y0026082D01*
X0006460Y0026194D01*
X0007453D01*
X0007529Y0026092D01*
X0007518Y0026055D01*
X0007316Y0026015D01*
X0007117Y0025883D01*
X0006985Y0025684D01*
X0006938Y0025450D01*
X0006985Y0025216D01*
X0007117Y0025017D01*
X0007316Y0024885D01*
X0007550Y0024838D01*
X0007784Y0024885D01*
X0007983Y0025017D01*
X0007987Y0025024D01*
X0008113Y0025037D01*
X0009884Y0023266D01*
X0009956Y0023218D01*
X0009992Y0023194D01*
X0010119Y0023169D01*
X0010542D01*
X0010634Y0022945D01*
X0010811Y0022715D01*
X0010959Y0022602D01*
X0010918Y0022481D01*
X0009337D01*
X0007534Y0024284D01*
X0007427Y0024356D01*
X0007406Y0024360D01*
X0007358Y0024370D01*
X0007283Y0024483D01*
X0007084Y0024615D01*
X0006850Y0024662D01*
X0006616Y0024615D01*
X0006417Y0024483D01*
X0006285Y0024284D01*
X0006238Y0024050D01*
X0006285Y0023816D01*
X0006417Y0023617D01*
X0006616Y0023485D01*
X0006850Y0023438D01*
X0007084Y0023485D01*
X0007271Y0023610D01*
X0008966Y0021916D01*
X0009073Y0021844D01*
X0009200Y0021819D01*
X0010658D01*
X0010666Y0021692D01*
X0010513Y0021672D01*
X0010245Y0021561D01*
X0010174Y0021506D01*
X0008917D01*
X0008833Y0021633D01*
X0008634Y0021765D01*
X0008400Y0021812D01*
X0008166Y0021765D01*
X0008052Y0021689D01*
X0007934Y0021738D01*
X0007915Y0021834D01*
X0007783Y0022033D01*
X0007584Y0022165D01*
X0007350Y0022212D01*
X0007116Y0022165D01*
X0006917Y0022033D01*
X0006785Y0021834D01*
X0006743Y0021623D01*
X0006550Y0021662D01*
X0006316Y0021615D01*
X0006117Y0021483D01*
X0005985Y0021284D01*
X0005938Y0021050D01*
X0005957Y0020955D01*
X0005887Y0020849D01*
X0005716Y0020815D01*
X0005517Y0020683D01*
X0005385Y0020484D01*
X0005368Y0020400D01*
X0005950D01*
Y0020250D01*
X0006100D01*
Y0019668D01*
X0006184Y0019685D01*
X0006383Y0019817D01*
X0006473Y0019952D01*
X0006594Y0019915D01*
Y0019677D01*
X0005934Y0019016D01*
X0005867Y0018917D01*
X0005844Y0018800D01*
X0005844Y0018800D01*
Y0017400D01*
X0005844Y0017400D01*
X0005867Y0017283D01*
X0005934Y0017184D01*
X0006643Y0016475D01*
X0006606Y0016353D01*
X0006416Y0016315D01*
X0006217Y0016183D01*
X0006085Y0015984D01*
X0006068Y0015900D01*
X0006650D01*
Y0015750D01*
X0006800D01*
Y0015168D01*
X0006884Y0015185D01*
X0007083Y0015317D01*
X0007215Y0015516D01*
X0007262Y0015750D01*
X0007251Y0015806D01*
X0007340Y0015896D01*
X0007350Y0015894D01*
X0012850D01*
X0012850Y0015894D01*
X0012850Y0015894D01*
X0012850Y0015894D01*
D01*
X0012888Y0015900D01*
X0012888D01*
X0012888Y0015900D01*
X0012935Y0015666D01*
X0013067Y0015467D01*
X0013266Y0015335D01*
X0013350Y0015318D01*
Y0015900D01*
X0013500D01*
Y0016050D01*
X0014082D01*
X0014065Y0016134D01*
X0013933Y0016333D01*
X0013734Y0016465D01*
X0013711Y0016470D01*
X0013674Y0016591D01*
X0013986Y0016904D01*
X0013986Y0016904D01*
X0014026Y0016963D01*
X0014053Y0017003D01*
X0014076Y0017120D01*
X0014076Y0017120D01*
X0014076Y0017120D01*
Y0017120D01*
Y0018550D01*
X0014053Y0018667D01*
X0013986Y0018767D01*
X0013986Y0018767D01*
X0013250Y0019503D01*
X0013268Y0019629D01*
X0013328Y0019660D01*
X0013516Y0019535D01*
X0013750Y0019488D01*
X0013984Y0019535D01*
X0014107Y0019617D01*
X0014197Y0019527D01*
X0014135Y0019434D01*
X0014088Y0019200D01*
X0014135Y0018966D01*
X0014267Y0018767D01*
X0014466Y0018635D01*
X0014471Y0018634D01*
X0014508Y0018512D01*
X0014448Y0018452D01*
X0014370Y0018337D01*
X0014343Y0018200D01*
Y0014433D01*
X0014267Y0014383D01*
X0014135Y0014184D01*
X0014088Y0013950D01*
X0014135Y0013716D01*
X0014267Y0013517D01*
X0014466Y0013385D01*
X0014700Y0013338D01*
X0014934Y0013385D01*
X0015133Y0013517D01*
X0015265Y0013716D01*
X0015312Y0013950D01*
X0015265Y0014184D01*
X0015133Y0014383D01*
X0015057Y0014433D01*
Y0017993D01*
X0018470D01*
Y0016550D01*
X0028500D01*
Y0017993D01*
X0033650D01*
X0033787Y0018020D01*
X0033902Y0018098D01*
X0033902Y0018098D01*
X0033902Y0018098D01*
X0035148Y0019343D01*
X0037802D01*
X0038898Y0018248D01*
X0039013Y0018170D01*
X0039150Y0018143D01*
X0042111D01*
X0042135Y0018019D01*
X0041996Y0017961D01*
X0041767Y0017785D01*
X0041590Y0017555D01*
X0041479Y0017287D01*
X0041442Y0017000D01*
X0041479Y0016713D01*
X0041590Y0016445D01*
X0041767Y0016216D01*
X0041996Y0016039D01*
X0042264Y0015928D01*
X0042551Y0015891D01*
X0042838Y0015928D01*
X0043106Y0016039D01*
X0043336Y0016216D01*
X0043512Y0016445D01*
X0043623Y0016713D01*
X0043661Y0017000D01*
X0043623Y0017287D01*
X0043512Y0017555D01*
X0043336Y0017785D01*
X0043106Y0017961D01*
X0042967Y0018019D01*
X0042991Y0018143D01*
X0050400D01*
X0050537Y0018170D01*
X0050652Y0018248D01*
X0051602Y0019198D01*
X0051680Y0019313D01*
X0051707Y0019450D01*
Y0022967D01*
X0051783Y0023017D01*
X0051915Y0023216D01*
X0051962Y0023450D01*
X0051915Y0023684D01*
X0051783Y0023883D01*
X0051584Y0024015D01*
X0051350Y0024062D01*
X0051116Y0024015D01*
X0050917Y0023883D01*
X0050785Y0023684D01*
X0050738Y0023450D01*
X0050785Y0023216D01*
X0050917Y0023017D01*
X0050993Y0022967D01*
Y0019598D01*
X0050252Y0018857D01*
X0039298D01*
X0038207Y0019948D01*
Y0020652D01*
X0039716Y0022161D01*
X0039834Y0022185D01*
X0040033Y0022317D01*
X0040165Y0022516D01*
X0040212Y0022750D01*
X0040165Y0022984D01*
X0040033Y0023183D01*
X0039834Y0023315D01*
X0039600Y0023362D01*
X0039366Y0023315D01*
X0039167Y0023183D01*
X0039035Y0022984D01*
X0038988Y0022750D01*
X0039035Y0022516D01*
X0039045Y0022500D01*
X0037658Y0021112D01*
X0037561Y0021093D01*
X0037505Y0021099D01*
X0037383Y0021283D01*
X0037184Y0021415D01*
X0037132Y0021426D01*
X0037107Y0021550D01*
X0037133Y0021567D01*
X0037265Y0021766D01*
X0037312Y0022000D01*
X0037265Y0022234D01*
X0037133Y0022433D01*
X0036934Y0022565D01*
X0036700Y0022612D01*
X0036466Y0022565D01*
X0036267Y0022433D01*
X0036217Y0022357D01*
X0035500D01*
X0035363Y0022330D01*
X0035248Y0022252D01*
X0033802Y0020807D01*
X0021832D01*
X0021784Y0020924D01*
X0025716Y0024857D01*
X0025783Y0024956D01*
X0025806Y0025073D01*
X0025806Y0025073D01*
Y0025113D01*
X0025824Y0025126D01*
X0025924Y0025274D01*
X0025959Y0025450D01*
Y0025600D01*
X0026749D01*
X0026855Y0025529D01*
X0027050Y0025490D01*
X0028400D01*
X0028464Y0025503D01*
X0028698Y0025534D01*
X0029045Y0025678D01*
X0029343Y0025907D01*
X0029572Y0026205D01*
X0029716Y0026552D01*
X0029765Y0026925D01*
X0029757Y0026987D01*
X0029760Y0027000D01*
Y0028739D01*
X0032011Y0030990D01*
X0036571D01*
X0036718Y0030634D01*
X0036965Y0030231D01*
X0037272Y0029872D01*
X0037631Y0029565D01*
X0038033Y0029319D01*
X0038470Y0029138D01*
X0038929Y0029028D01*
X0039400Y0028991D01*
X0039870Y0029028D01*
X0040329Y0029138D01*
X0040766Y0029319D01*
X0041168Y0029565D01*
X0041527Y0029872D01*
X0041834Y0030231D01*
X0042081Y0030634D01*
X0042228Y0030990D01*
X0043689D01*
X0044240Y0030440D01*
D02*
G37*
%LPC*%
G36*
X0044500Y0014932D02*
Y0014500D01*
X0044932D01*
X0044915Y0014584D01*
X0044783Y0014783D01*
X0044584Y0014915D01*
X0044500Y0014932D01*
D02*
G37*
G36*
X0009850Y0014462D02*
X0009616Y0014415D01*
X0009417Y0014283D01*
X0009367Y0014207D01*
X0004700D01*
X0004563Y0014180D01*
X0004448Y0014102D01*
X0003396Y0013051D01*
X0003216Y0013015D01*
X0003017Y0012883D01*
X0002885Y0012684D01*
X0002838Y0012450D01*
X0002885Y0012216D01*
X0003017Y0012017D01*
X0003093Y0011967D01*
Y0011800D01*
X0003120Y0011663D01*
X0003198Y0011548D01*
X0006406Y0008339D01*
X0006388Y0008250D01*
X0006435Y0008016D01*
X0006567Y0007817D01*
X0006766Y0007685D01*
X0007000Y0007638D01*
X0007234Y0007685D01*
X0007433Y0007817D01*
X0007565Y0008016D01*
X0007612Y0008250D01*
X0007565Y0008484D01*
X0007433Y0008683D01*
X0007234Y0008815D01*
X0007000Y0008862D01*
X0006911Y0008844D01*
X0003866Y0011888D01*
X0003879Y0012015D01*
X0003883Y0012017D01*
X0004015Y0012216D01*
X0004062Y0012450D01*
X0004019Y0012664D01*
X0004848Y0013493D01*
X0009367D01*
X0009417Y0013417D01*
X0009616Y0013285D01*
X0009850Y0013238D01*
X0010084Y0013285D01*
X0010283Y0013417D01*
X0010415Y0013616D01*
X0010462Y0013850D01*
X0010415Y0014084D01*
X0010283Y0014283D01*
X0010084Y0014415D01*
X0009850Y0014462D01*
D02*
G37*
G36*
X0006500Y0015600D02*
X0006068D01*
X0006085Y0015516D01*
X0006217Y0015317D01*
X0006416Y0015185D01*
X0006500Y0015168D01*
Y0015600D01*
D02*
G37*
G36*
X0044200Y0014932D02*
X0044116Y0014915D01*
X0043917Y0014783D01*
X0043785Y0014584D01*
X0043768Y0014500D01*
X0044200D01*
Y0014932D01*
D02*
G37*
G36*
X0044932Y0014200D02*
X0044500D01*
Y0013768D01*
X0044584Y0013785D01*
X0044783Y0013917D01*
X0044915Y0014116D01*
X0044932Y0014200D01*
D02*
G37*
G36*
X0044200D02*
X0043768D01*
X0043785Y0014116D01*
X0043917Y0013917D01*
X0044116Y0013785D01*
X0044200Y0013768D01*
Y0014200D01*
D02*
G37*
G36*
X0053750Y0017750D02*
X0053318D01*
X0053335Y0017666D01*
X0053467Y0017467D01*
X0053666Y0017335D01*
X0053750Y0017318D01*
Y0017750D01*
D02*
G37*
G36*
X0002550Y0017032D02*
Y0016600D01*
X0002982D01*
X0002965Y0016684D01*
X0002833Y0016883D01*
X0002634Y0017015D01*
X0002550Y0017032D01*
D02*
G37*
G36*
X0053750Y0018482D02*
X0053666Y0018465D01*
X0053467Y0018333D01*
X0053335Y0018134D01*
X0053318Y0018050D01*
X0053750D01*
Y0018482D01*
D02*
G37*
G36*
X0054482Y0017750D02*
X0054050D01*
Y0017318D01*
X0054134Y0017335D01*
X0054333Y0017467D01*
X0054465Y0017666D01*
X0054482Y0017750D01*
D02*
G37*
G36*
X0002250Y0017032D02*
X0002166Y0017015D01*
X0001967Y0016883D01*
X0001835Y0016684D01*
X0001818Y0016600D01*
X0002250D01*
Y0017032D01*
D02*
G37*
G36*
X0036300Y0016062D02*
X0036066Y0016015D01*
X0035867Y0015883D01*
X0035817Y0015807D01*
X0034283D01*
X0034233Y0015883D01*
X0034034Y0016015D01*
X0033800Y0016062D01*
X0033566Y0016015D01*
X0033367Y0015883D01*
X0033235Y0015684D01*
X0033188Y0015450D01*
X0033235Y0015216D01*
X0033367Y0015017D01*
X0033566Y0014885D01*
X0033800Y0014838D01*
X0034034Y0014885D01*
X0034233Y0015017D01*
X0034283Y0015093D01*
X0035817D01*
X0035867Y0015017D01*
X0036066Y0014885D01*
X0036300Y0014838D01*
X0036534Y0014885D01*
X0036733Y0015017D01*
X0036865Y0015216D01*
X0036912Y0015450D01*
X0036865Y0015684D01*
X0036733Y0015883D01*
X0036534Y0016015D01*
X0036300Y0016062D01*
D02*
G37*
G36*
X0014082Y0015750D02*
X0013650D01*
Y0015318D01*
X0013734Y0015335D01*
X0013933Y0015467D01*
X0014065Y0015666D01*
X0014082Y0015750D01*
D02*
G37*
G36*
X0002982Y0016300D02*
X0002550D01*
Y0015868D01*
X0002634Y0015885D01*
X0002833Y0016017D01*
X0002965Y0016216D01*
X0002982Y0016300D01*
D02*
G37*
G36*
X0002250D02*
X0001818D01*
X0001835Y0016216D01*
X0001967Y0016017D01*
X0002166Y0015885D01*
X0002250Y0015868D01*
Y0016300D01*
D02*
G37*
G36*
X0027900Y0015811D02*
X0027561Y0015767D01*
X0027244Y0015636D01*
X0026973Y0015427D01*
X0026764Y0015156D01*
X0026633Y0014839D01*
X0026589Y0014500D01*
X0026633Y0014161D01*
X0026764Y0013844D01*
X0026973Y0013573D01*
X0027244Y0013364D01*
X0027561Y0013233D01*
X0027900Y0013189D01*
X0028239Y0013233D01*
X0028556Y0013364D01*
X0028827Y0013573D01*
X0029036Y0013844D01*
X0029167Y0014161D01*
X0029211Y0014500D01*
X0029167Y0014839D01*
X0029036Y0015156D01*
X0028827Y0015427D01*
X0028556Y0015636D01*
X0028239Y0015767D01*
X0027900Y0015811D01*
D02*
G37*
G36*
X0055800Y0009300D02*
X0054961D01*
X0054976Y0009189D01*
X0055076Y0008946D01*
X0055237Y0008737D01*
X0055446Y0008576D01*
X0055689Y0008476D01*
X0055800Y0008461D01*
Y0009300D01*
D02*
G37*
G36*
X0056939D02*
X0056100D01*
Y0008461D01*
X0056211Y0008476D01*
X0056454Y0008576D01*
X0056663Y0008737D01*
X0056824Y0008946D01*
X0056924Y0009189D01*
X0056939Y0009300D01*
D02*
G37*
G36*
X0055800Y0010439D02*
X0055689Y0010424D01*
X0055446Y0010323D01*
X0055237Y0010163D01*
X0055076Y0009954D01*
X0054976Y0009711D01*
X0054961Y0009600D01*
X0055800D01*
Y0010439D01*
D02*
G37*
G36*
X0051750Y0005832D02*
Y0005400D01*
X0052182D01*
X0052165Y0005484D01*
X0052033Y0005683D01*
X0051834Y0005815D01*
X0051750Y0005832D01*
D02*
G37*
G36*
X0014600Y0001982D02*
X0014516Y0001965D01*
X0014317Y0001833D01*
X0014185Y0001634D01*
X0014168Y0001550D01*
X0014600D01*
Y0001982D01*
D02*
G37*
G36*
X0052182Y0005100D02*
X0051750D01*
Y0004668D01*
X0051834Y0004685D01*
X0052033Y0004817D01*
X0052165Y0005016D01*
X0052182Y0005100D01*
D02*
G37*
G36*
X0051450Y0005832D02*
X0051366Y0005815D01*
X0051167Y0005683D01*
X0051035Y0005484D01*
X0051018Y0005400D01*
X0051450D01*
Y0005832D01*
D02*
G37*
G36*
X0056100Y0010439D02*
Y0009600D01*
X0056939D01*
X0056924Y0009711D01*
X0056824Y0009954D01*
X0056663Y0010163D01*
X0056454Y0010323D01*
X0056211Y0010424D01*
X0056100Y0010439D01*
D02*
G37*
G36*
X0031800Y0010832D02*
Y0010400D01*
X0032232D01*
X0032215Y0010484D01*
X0032083Y0010683D01*
X0031884Y0010815D01*
X0031800Y0010832D01*
D02*
G37*
G36*
X0011750Y0011712D02*
X0011516Y0011665D01*
X0011317Y0011533D01*
X0011267Y0011457D01*
X0009800D01*
X0009663Y0011430D01*
X0009548Y0011352D01*
X0008098Y0009902D01*
X0008020Y0009787D01*
X0007993Y0009650D01*
Y0007148D01*
X0007248Y0006402D01*
X0007170Y0006287D01*
X0007143Y0006150D01*
Y0003333D01*
X0007067Y0003283D01*
X0006935Y0003084D01*
X0006888Y0002850D01*
X0006935Y0002616D01*
X0007067Y0002417D01*
X0007266Y0002285D01*
X0007500Y0002238D01*
X0007734Y0002285D01*
X0007933Y0002417D01*
X0008065Y0002616D01*
X0008112Y0002850D01*
X0008065Y0003084D01*
X0007933Y0003283D01*
X0007857Y0003333D01*
Y0006002D01*
X0008602Y0006748D01*
X0008680Y0006863D01*
X0008707Y0007000D01*
Y0009502D01*
X0009304Y0010099D01*
X0009426Y0010062D01*
X0009435Y0010016D01*
X0009567Y0009817D01*
X0009766Y0009685D01*
X0009850Y0009668D01*
Y0010250D01*
X0010000D01*
Y0010400D01*
X0010582D01*
X0010565Y0010484D01*
X0010467Y0010631D01*
X0010527Y0010743D01*
X0011267D01*
X0011317Y0010667D01*
X0011516Y0010535D01*
X0011750Y0010488D01*
X0011984Y0010535D01*
X0012183Y0010667D01*
X0012315Y0010866D01*
X0012362Y0011100D01*
X0012315Y0011334D01*
X0012183Y0011533D01*
X0011984Y0011665D01*
X0011750Y0011712D01*
D02*
G37*
G36*
X0019000Y0015811D02*
X0018661Y0015767D01*
X0018344Y0015636D01*
X0018073Y0015427D01*
X0017864Y0015156D01*
X0017733Y0014839D01*
X0017689Y0014500D01*
X0017733Y0014161D01*
X0017864Y0013844D01*
X0018073Y0013573D01*
X0018344Y0013364D01*
X0018661Y0013233D01*
X0019000Y0013189D01*
X0019339Y0013233D01*
X0019656Y0013364D01*
X0019927Y0013573D01*
X0020136Y0013844D01*
X0020267Y0014161D01*
X0020311Y0014500D01*
X0020267Y0014839D01*
X0020136Y0015156D01*
X0019927Y0015427D01*
X0019656Y0015636D01*
X0019339Y0015767D01*
X0019000Y0015811D01*
D02*
G37*
G36*
X0031500Y0010832D02*
X0031416Y0010815D01*
X0031217Y0010683D01*
X0031085Y0010484D01*
X0031068Y0010400D01*
X0031500D01*
Y0010832D01*
D02*
G37*
G36*
X0010582Y0010100D02*
X0010150D01*
Y0009668D01*
X0010234Y0009685D01*
X0010433Y0009817D01*
X0010565Y0010016D01*
X0010582Y0010100D01*
D02*
G37*
G36*
X0031500D02*
X0031068D01*
X0031085Y0010016D01*
X0031217Y0009817D01*
X0031416Y0009685D01*
X0031500Y0009668D01*
Y0010100D01*
D02*
G37*
G36*
X0032232D02*
X0031800D01*
Y0009668D01*
X0031884Y0009685D01*
X0032083Y0009817D01*
X0032215Y0010016D01*
X0032232Y0010100D01*
D02*
G37*
G36*
X0026650Y0035182D02*
X0026566Y0035165D01*
X0026367Y0035033D01*
X0026235Y0034834D01*
X0026218Y0034750D01*
X0026650D01*
Y0035182D01*
D02*
G37*
G36*
X0021650Y0040658D02*
X0021402Y0040626D01*
X0021171Y0040530D01*
X0020972Y0040378D01*
X0020820Y0040179D01*
X0020724Y0039948D01*
X0020692Y0039700D01*
X0020724Y0039452D01*
X0020820Y0039221D01*
X0020972Y0039022D01*
X0021171Y0038870D01*
X0021402Y0038774D01*
X0021650Y0038742D01*
X0021898Y0038774D01*
X0022129Y0038870D01*
X0022328Y0039022D01*
X0022480Y0039221D01*
X0022576Y0039452D01*
X0022608Y0039700D01*
X0022576Y0039948D01*
X0022480Y0040179D01*
X0022328Y0040378D01*
X0022129Y0040530D01*
X0021898Y0040626D01*
X0021650Y0040658D01*
D02*
G37*
G36*
X0025100Y0039550D02*
X0024312D01*
X0024324Y0039452D01*
X0024420Y0039221D01*
X0024572Y0039022D01*
X0024771Y0038870D01*
X0025002Y0038774D01*
X0025100Y0038762D01*
Y0039550D01*
D02*
G37*
G36*
X0004782Y0028550D02*
X0004350D01*
Y0028118D01*
X0004434Y0028135D01*
X0004633Y0028267D01*
X0004765Y0028466D01*
X0004782Y0028550D01*
D02*
G37*
G36*
X0041750Y0027882D02*
X0041666Y0027865D01*
X0041467Y0027733D01*
X0041335Y0027534D01*
X0041318Y0027450D01*
X0041750D01*
Y0027882D01*
D02*
G37*
G36*
X0042050D02*
Y0027450D01*
X0042482D01*
X0042465Y0027534D01*
X0042333Y0027733D01*
X0042134Y0027865D01*
X0042050Y0027882D01*
D02*
G37*
G36*
X0004050Y0028550D02*
X0003618D01*
X0003635Y0028466D01*
X0003767Y0028267D01*
X0003966Y0028135D01*
X0004050Y0028118D01*
Y0028550D01*
D02*
G37*
G36*
X0026188Y0039550D02*
X0025400D01*
Y0038762D01*
X0025498Y0038774D01*
X0025729Y0038870D01*
X0025928Y0039022D01*
X0026080Y0039221D01*
X0026176Y0039452D01*
X0026188Y0039550D01*
D02*
G37*
G36*
X0026432Y0047300D02*
X0026000D01*
Y0046868D01*
X0026084Y0046885D01*
X0026283Y0047017D01*
X0026415Y0047216D01*
X0026432Y0047300D01*
D02*
G37*
G36*
X0025700Y0048032D02*
X0025616Y0048015D01*
X0025417Y0047883D01*
X0025285Y0047684D01*
X0025268Y0047600D01*
X0025700D01*
Y0048032D01*
D02*
G37*
G36*
X0026000D02*
Y0047600D01*
X0026432D01*
X0026415Y0047684D01*
X0026283Y0047883D01*
X0026084Y0048015D01*
X0026000Y0048032D01*
D02*
G37*
G36*
X0025700Y0047300D02*
X0025268D01*
X0025285Y0047216D01*
X0025417Y0047017D01*
X0025616Y0046885D01*
X0025700Y0046868D01*
Y0047300D01*
D02*
G37*
G36*
X0025100Y0040638D02*
X0025002Y0040626D01*
X0024771Y0040530D01*
X0024572Y0040378D01*
X0024420Y0040179D01*
X0024324Y0039948D01*
X0024312Y0039850D01*
X0025100D01*
Y0040638D01*
D02*
G37*
G36*
X0025400D02*
Y0039850D01*
X0026188D01*
X0026176Y0039948D01*
X0026080Y0040179D01*
X0025928Y0040378D01*
X0025729Y0040530D01*
X0025498Y0040626D01*
X0025400Y0040638D01*
D02*
G37*
G36*
X0020382Y0046750D02*
X0019950D01*
Y0046318D01*
X0020034Y0046335D01*
X0020233Y0046467D01*
X0020365Y0046666D01*
X0020382Y0046750D01*
D02*
G37*
G36*
X0001150Y0027382D02*
Y0026950D01*
X0001582D01*
X0001565Y0027034D01*
X0001433Y0027233D01*
X0001234Y0027365D01*
X0001150Y0027382D01*
D02*
G37*
G36*
X0031350Y0023782D02*
X0031266Y0023765D01*
X0031067Y0023633D01*
X0030935Y0023434D01*
X0030918Y0023350D01*
X0031350D01*
Y0023782D01*
D02*
G37*
G36*
X0031650D02*
Y0023350D01*
X0032082D01*
X0032065Y0023434D01*
X0031933Y0023633D01*
X0031734Y0023765D01*
X0031650Y0023782D01*
D02*
G37*
G36*
X0006482Y0025600D02*
X0006050D01*
Y0025168D01*
X0006134Y0025185D01*
X0006333Y0025317D01*
X0006465Y0025516D01*
X0006482Y0025600D01*
D02*
G37*
G36*
X0032082Y0023050D02*
X0031650D01*
Y0022618D01*
X0031734Y0022635D01*
X0031933Y0022767D01*
X0032065Y0022966D01*
X0032082Y0023050D01*
D02*
G37*
G36*
X0054050Y0018482D02*
Y0018050D01*
X0054482D01*
X0054465Y0018134D01*
X0054333Y0018333D01*
X0054134Y0018465D01*
X0054050Y0018482D01*
D02*
G37*
G36*
X0005800Y0020100D02*
X0005368D01*
X0005385Y0020016D01*
X0005517Y0019817D01*
X0005716Y0019685D01*
X0005800Y0019668D01*
Y0020100D01*
D02*
G37*
G36*
X0031350Y0023050D02*
X0030918D01*
X0030935Y0022966D01*
X0031067Y0022767D01*
X0031266Y0022635D01*
X0031350Y0022618D01*
Y0023050D01*
D02*
G37*
G36*
X0010150Y0026450D02*
X0009210D01*
X0009228Y0026313D01*
X0009339Y0026045D01*
X0009515Y0025815D01*
X0009745Y0025639D01*
X0010013Y0025528D01*
X0010150Y0025510D01*
Y0026450D01*
D02*
G37*
G36*
Y0027690D02*
X0010013Y0027672D01*
X0009745Y0027561D01*
X0009515Y0027385D01*
X0009339Y0027155D01*
X0009228Y0026887D01*
X0009210Y0026750D01*
X0010150D01*
Y0027690D01*
D02*
G37*
G36*
X0010450D02*
Y0026750D01*
X0011390D01*
X0011372Y0026887D01*
X0011261Y0027155D01*
X0011085Y0027385D01*
X0010855Y0027561D01*
X0010587Y0027672D01*
X0010450Y0027690D01*
D02*
G37*
G36*
X0000850Y0027382D02*
X0000766Y0027365D01*
X0000567Y0027233D01*
X0000435Y0027034D01*
X0000418Y0026950D01*
X0000850D01*
Y0027382D01*
D02*
G37*
G36*
X0042482Y0027150D02*
X0042050D01*
Y0026718D01*
X0042134Y0026735D01*
X0042333Y0026867D01*
X0042465Y0027066D01*
X0042482Y0027150D01*
D02*
G37*
G36*
X0011390Y0026450D02*
X0010450D01*
Y0025510D01*
X0010587Y0025528D01*
X0010855Y0025639D01*
X0011085Y0025815D01*
X0011261Y0026045D01*
X0011372Y0026313D01*
X0011390Y0026450D01*
D02*
G37*
G36*
X0000850Y0026650D02*
X0000418D01*
X0000435Y0026566D01*
X0000567Y0026367D01*
X0000766Y0026235D01*
X0000850Y0026218D01*
Y0026650D01*
D02*
G37*
G36*
X0041750Y0027150D02*
X0041318D01*
X0041335Y0027066D01*
X0041467Y0026867D01*
X0041666Y0026735D01*
X0041750Y0026718D01*
Y0027150D01*
D02*
G37*
%LPD*%
D26*
X0053900Y0017900D02*
D03*
X0014300Y0008950D02*
D03*
X0014700Y0010950D02*
D03*
X0051600Y0005250D02*
D03*
X0014700Y0013950D02*
D03*
X0009850Y0013850D02*
D03*
X0002400Y0016450D02*
D03*
X0003450Y0012450D02*
D03*
X0041900Y0027300D02*
D03*
X0031500Y0023200D02*
D03*
X0013750Y0020100D02*
D03*
X0036700Y0022000D02*
D03*
X0039600Y0022750D02*
D03*
X0036950Y0020850D02*
D03*
X0036300Y0015450D02*
D03*
X0033800D02*
D03*
X0014700Y0019200D02*
D03*
X0011750Y0011100D02*
D03*
X0007500Y0002850D02*
D03*
X0014750Y0001400D02*
D03*
X0007000Y0008250D02*
D03*
X0006650Y0015750D02*
D03*
X0013500Y0015900D02*
D03*
X0010000Y0010250D02*
D03*
X0049350Y0000900D02*
D03*
X0014050Y0023250D02*
D03*
X0015600Y0038300D02*
D03*
X0019800Y0046900D02*
D03*
X0018700D02*
D03*
X0017600Y0046950D02*
D03*
X0015400Y0044750D02*
D03*
X0001000Y0026800D02*
D03*
X0005950Y0020250D02*
D03*
X0008400Y0021200D02*
D03*
X0009101Y0020250D02*
D03*
X0007550Y0025450D02*
D03*
X0009300Y0028850D02*
D03*
X0003850Y0022000D02*
D03*
X0000718Y0019400D02*
D03*
X0005900Y0025750D02*
D03*
X0049200Y0004950D02*
D03*
X0044350Y0014350D02*
D03*
X0031650Y0010250D02*
D03*
X0021650Y0034400D02*
D03*
X0013150Y0025900D02*
D03*
X0024850Y0034400D02*
D03*
X0028150Y0039000D02*
D03*
Y0041150D02*
D03*
X0003850Y0023000D02*
D03*
X0004200Y0028700D02*
D03*
X0004700Y0021250D02*
D03*
X0003900Y0020400D02*
D03*
X0007350Y0021600D02*
D03*
X0006850Y0024050D02*
D03*
X0006550Y0021050D02*
D03*
X0028050Y0043900D02*
D03*
X0025850Y0047450D02*
D03*
X0025050Y0035500D02*
D03*
X0026800Y0034600D02*
D03*
X0051350Y0023450D02*
D03*
D35*
X0021650Y0039700D02*
D03*
Y0043300D02*
D03*
X0025250Y0039700D02*
D03*
D45*
X0053900Y0017900D02*
X0056100Y0015700D01*
X0057350D01*
X0051750Y0005250D02*
X0055950Y0009450D01*
X0051600Y0005250D02*
X0051750D01*
X0049200Y0002650D02*
Y0004950D01*
X0048650Y0002100D02*
X0049200Y0002650D01*
X0033250Y0002100D02*
X0048650D01*
X0051350Y0019450D02*
Y0023450D01*
X0050400Y0018500D02*
X0051350Y0019450D01*
X0042500Y0018500D02*
X0050400D01*
X0033550Y0019200D02*
X0035200Y0020850D01*
X0014700Y0019200D02*
X0033550D01*
X0033650Y0018350D02*
X0035000Y0019700D01*
X0014850Y0018350D02*
X0033650D01*
X0014700Y0018200D02*
X0014850Y0018350D01*
X0015500Y0008500D02*
X0036986D01*
X0015100Y0008900D02*
X0015500Y0008500D01*
X0015100Y0008900D02*
Y0010550D01*
X0015200Y0008050D02*
X0036800D01*
X0014300Y0008950D02*
X0015200Y0008050D01*
X0014700Y0010950D02*
X0015100Y0010550D01*
X0037136Y0008350D02*
X0049850D01*
X0036986Y0008500D02*
X0037136Y0008350D01*
X0036800Y0008050D02*
X0038810Y0006040D01*
X0014300Y0008950D02*
X0014500D01*
X0049850Y0008350D02*
X0050950Y0009450D01*
X0032750Y0002600D02*
X0033250Y0002100D01*
X0014700Y0013950D02*
Y0018200D01*
X0037850Y0019700D02*
Y0020800D01*
X0035000Y0019700D02*
X0037850D01*
Y0019800D02*
X0039150Y0018500D01*
X0004700Y0013850D02*
X0009850D01*
X0003450Y0012600D02*
X0004700Y0013850D01*
X0003450Y0012450D02*
Y0012600D01*
X0003450Y0012450D02*
X0003450D01*
Y0011800D02*
Y0012450D01*
Y0011800D02*
X0007000Y0008250D01*
X0035600Y0027300D02*
X0041900D01*
X0031500Y0023200D02*
X0035600Y0027300D01*
X0013500Y0012550D02*
Y0015900D01*
Y0011700D02*
Y0012550D01*
X0030700D01*
X0031650Y0011600D01*
Y0010250D02*
Y0011600D01*
X0013750Y0020100D02*
X0014100Y0020450D01*
X0033950D01*
X0035500Y0022000D01*
X0036700D01*
X0039600Y0022550D02*
Y0022750D01*
X0037850Y0020800D02*
X0039600Y0022550D01*
X0057350Y0010850D02*
Y0015700D01*
X0057300Y0015650D02*
X0057350Y0015700D01*
X0044350Y0014350D02*
X0057300D01*
X0035200Y0020850D02*
X0036950D01*
X0036400Y0015450D02*
Y0015550D01*
X0036350Y0015600D02*
X0036400Y0015550D01*
X0036200Y0015450D02*
X0036350Y0015600D01*
X0033800Y0015450D02*
X0036200D01*
X0008350Y0009650D02*
X0009800Y0011100D01*
X0011750D01*
X0010000Y0010250D02*
X0012050D01*
X0013500Y0011700D01*
X0044350Y0012800D02*
Y0014350D01*
X0041800Y0010250D02*
X0044350Y0012800D01*
X0031650Y0010250D02*
X0041800D01*
X0016250Y0046950D02*
X0017600D01*
X0014600Y0045300D02*
X0016250Y0046950D01*
X0014600Y0037650D02*
Y0045300D01*
X0021650Y0043300D02*
Y0046500D01*
X0020550Y0047600D02*
X0021650Y0046500D01*
X0018250Y0047600D02*
X0020550D01*
X0017600Y0046950D02*
X0018250Y0047600D01*
X0008350Y0007000D02*
Y0009650D01*
X0007500Y0006150D02*
X0008350Y0007000D01*
X0007500Y0002850D02*
Y0006150D01*
X0007000Y0008250D02*
Y0008250D01*
X0013350Y0015750D02*
X0013500Y0015900D01*
X0006650Y0015750D02*
X0013350D01*
X0021650Y0039700D02*
Y0039700D01*
X-0000200Y0027300D02*
X0001900Y0029400D01*
X0008550Y0028650D02*
X0008750Y0028850D01*
X0009300D01*
X-0000200Y0020200D02*
X0000600Y0019400D01*
X0005950Y0020250D02*
Y0020294D01*
X0014600Y0037650D02*
X0018150Y0034100D01*
X0019500D01*
X-0000200Y0020200D02*
Y0027300D01*
X0001900Y0029400D02*
X0005400D01*
X0006150Y0028650D01*
X0008550D01*
X0005550Y0019850D02*
X0005950Y0020250D01*
X0005650Y0020594D02*
Y0024119D01*
X0005900Y0024369D01*
X0005650Y0020594D02*
X0005950Y0020294D01*
X0025250Y0039700D02*
X0026750Y0038200D01*
Y0034650D02*
X0026800Y0034600D01*
X0026750Y0034650D02*
Y0038200D01*
X0055950Y0009450D02*
X0057350Y0010850D01*
X0050350Y0008850D02*
X0050950Y0009450D01*
X0042500Y0017051D02*
Y0018500D01*
Y0017051D02*
X0042551Y0017000D01*
X0039150Y0018500D02*
X0042500D01*
X0038810Y0004400D02*
Y0006040D01*
X0030810Y0002290D02*
Y0004400D01*
X0032750Y0002600D02*
Y0004050D01*
X0030810Y0002290D02*
X0031950Y0001150D01*
X0049100D01*
X0049350Y0000900D01*
X0002400Y0016450D02*
X0005550D01*
Y0019850D01*
Y0016050D02*
Y0016450D01*
Y0016050D02*
X0005850Y0015750D01*
X0006650D01*
X0010000Y0005200D02*
Y0010250D01*
Y0005200D02*
X0013800Y0001400D01*
X0014750D01*
X0009300Y0028850D02*
X0009700Y0029250D01*
X0012350D01*
X0013400Y0028200D01*
D46*
X0014950Y0025500D02*
X0020500D01*
X0013400Y0027050D02*
X0014950Y0025500D01*
X0013400Y0027050D02*
Y0028200D01*
X0020500Y0025500D02*
X0021400Y0026400D01*
X0025500Y0032737D02*
X0025763Y0033000D01*
X0025500Y0025450D02*
Y0032737D01*
X0021400Y0026400D02*
Y0033200D01*
X0005900Y0024369D02*
Y0025750D01*
D47*
X0022460Y0026009D02*
Y0034363D01*
X0013425Y0024425D02*
X0020876D01*
X0022460Y0026009D01*
X0022450Y0034373D02*
X0022460Y0034363D01*
X0022450Y0034373D02*
Y0035150D01*
X0015750Y0037550D02*
Y0038300D01*
X0012400Y0025450D02*
X0013425Y0024425D01*
X0017600Y0035700D02*
X0021900D01*
X0015750Y0037550D02*
X0017600Y0035700D01*
X0015600Y0038300D02*
X0015750D01*
X0021900Y0035700D02*
X0022450Y0035150D01*
X0025250Y0039700D02*
X0026600Y0041050D01*
Y0046700D01*
X0025850Y0047450D02*
X0026600Y0046700D01*
X0004800Y0028000D02*
X0010300D01*
Y0026600D02*
Y0028000D01*
Y0026600D02*
X0011750D01*
X0012400Y0025950D01*
Y0025450D02*
Y0025950D01*
D48*
X0021327Y0020900D02*
X0025500Y0025073D01*
X0013150Y0020900D02*
X0021327D01*
X0025500Y0025073D02*
Y0025450D01*
X0027166Y0033000D02*
X0029300Y0035134D01*
X0025763Y0033000D02*
X0027166D01*
X0007350Y0016200D02*
X0012850D01*
X0006150Y0017400D02*
X0007350Y0016200D01*
X0012850D02*
X0013770Y0017120D01*
X0012910Y0020660D02*
X0013150Y0020900D01*
X0012910Y0019410D02*
Y0020660D01*
Y0019410D02*
X0013770Y0018550D01*
Y0017120D02*
Y0018550D01*
X0010900Y0019200D02*
X0012200Y0017900D01*
X0001800Y0024000D02*
X0002100D01*
X0002300Y0021000D02*
X0002651D01*
X0010200Y0021200D02*
X0010800Y0020600D01*
X0008400Y0021200D02*
X0010200D01*
X0002651Y0021000D02*
X0003651Y0022000D01*
X0003850D01*
X0003100Y0023000D02*
X0003850D01*
X0002100Y0024000D02*
X0003100Y0023000D01*
X0007600Y0017700D02*
Y0020631D01*
X0013000Y0022650D02*
X0013086Y0022564D01*
X0004300Y0018600D02*
X0004700Y0019000D01*
Y0021250D01*
X0009101Y0020250D02*
X0009300D01*
X0010350Y0019200D01*
X0010900D01*
X0007300Y0021550D02*
X0007350Y0021600D01*
Y0020881D02*
Y0021419D01*
X0007300Y0021469D02*
X0007350Y0021419D01*
X0007300Y0021469D02*
Y0021550D01*
X0007350Y0020881D02*
X0007600Y0020631D01*
X0006550Y0021050D02*
X0006900Y0020700D01*
Y0019550D02*
Y0020700D01*
X0006150Y0018800D02*
X0006900Y0019550D01*
X0006150Y0017400D02*
Y0018800D01*
X0028050Y0043900D02*
X0028350D01*
X0029300Y0035134D02*
Y0042950D01*
X0028350Y0043900D02*
X0029300Y0042950D01*
X0001000Y0026800D02*
Y0027650D01*
X0002050Y0028700D01*
X0004200D01*
X0004300Y0028000D02*
X0004800D01*
X0004200Y0028100D02*
X0004300Y0028000D01*
X0004200Y0028100D02*
Y0028700D01*
X0004613Y0030763D02*
Y0029964D01*
X0004080D01*
X0003280D02*
X0003813D01*
X0003280Y0030497D01*
Y0030630D01*
X0003413Y0030763D01*
X0003680D01*
X0003813Y0030630D01*
D49*
X0021000Y0022150D02*
X0024045Y0025195D01*
Y0033072D01*
X0009200Y0022150D02*
X0021000D01*
X0024100Y0033127D02*
Y0033650D01*
X0024045Y0033072D02*
X0024100Y0033127D01*
X0023700Y0033420D02*
Y0034150D01*
X0019500Y0034100D02*
X0020500D01*
X0023700Y0034150D02*
X0023800Y0034250D01*
X0014330Y0023925D02*
X0014620Y0023635D01*
X0014291Y0023925D02*
X0014330D01*
X0014266Y0023950D02*
X0014291Y0023925D01*
X0012950Y0023950D02*
X0014266D01*
X0009450Y0024750D02*
X0012150D01*
X0007675Y0026525D02*
X0009450Y0024750D01*
X0004425Y0026525D02*
X0007675D01*
X0008169Y0025450D02*
X0010119Y0023500D01*
X0007550Y0025450D02*
X0008169D01*
X0010119Y0023500D02*
X0012150D01*
X0012150Y0024750D02*
X0012950Y0023950D01*
X0018770Y0036800D02*
X0022037D01*
X0018655Y0036350D02*
X0021922D01*
X0015100Y0039905D02*
X0018655Y0036350D01*
X0015100Y0039905D02*
Y0043966D01*
X0015550Y0040050D02*
X0016585Y0039015D01*
X0015550Y0040050D02*
Y0043850D01*
X0016570Y0039000D02*
X0018770Y0036800D01*
X0015100Y0043966D02*
X0015400Y0044266D01*
Y0044750D01*
X0015550Y0043850D02*
X0018600Y0046900D01*
X0007300Y0024050D02*
X0009200Y0022150D01*
X0004200Y0026300D02*
X0004425Y0026525D01*
X0021922Y0036350D02*
X0022711Y0035561D01*
X0022037Y0036800D02*
X0022744Y0036094D01*
X0012150Y0023500D02*
X0013000Y0022650D01*
X0006850Y0024050D02*
X0007300D01*
D50*
X0022920Y0025819D02*
Y0035352D01*
X0014620Y0023635D02*
X0020736D01*
X0022920Y0025819D01*
X0022000Y0026200D02*
Y0034050D01*
X0020700Y0024900D02*
X0022000Y0026200D01*
X0014150Y0024900D02*
X0020700D01*
X0020900Y0023250D02*
X0023290Y0025640D01*
X0020737Y0022564D02*
X0023660Y0025487D01*
X0014450Y0023250D02*
X0020900D01*
X0023290Y0025640D02*
Y0035547D01*
X0013086Y0022564D02*
X0020737D01*
X0023660Y0025487D02*
Y0033231D01*
X0021144Y0021750D02*
X0024430Y0025036D01*
X0021218Y0021300D02*
X0024800Y0024882D01*
X0012850Y0021750D02*
X0021144D01*
X0024430Y0025036D02*
Y0032912D01*
X0013000Y0021300D02*
X0021218D01*
X0024800Y0024882D02*
Y0032759D01*
X0025566Y0033525D01*
X0024430Y0032912D02*
X0025412Y0033895D01*
X0025566Y0033525D02*
X0027181D01*
X0025412Y0033895D02*
X0027028D01*
X0023700Y0033271D02*
Y0033420D01*
X0023660Y0033231D02*
X0023700Y0033271D01*
X0024100Y0033650D02*
X0024850Y0034400D01*
X0021650D02*
X0022000Y0034050D01*
X0020500Y0034100D02*
X0021400Y0033200D01*
X0022711Y0035561D02*
X0022920Y0035352D01*
X0022744Y0036094D02*
X0023290Y0035547D01*
X0023800Y0034283D02*
X0025017Y0035500D01*
X0023800Y0034250D02*
Y0034283D01*
X0012611Y0016600D02*
X0013410Y0017399D01*
X0011350Y0016600D02*
X0012611D01*
X0010250Y0017700D02*
X0011350Y0016600D01*
X0012550Y0020850D02*
X0013000Y0021300D01*
X0012550Y0019261D02*
Y0020850D01*
Y0019261D02*
X0013410Y0018401D01*
Y0017399D02*
Y0018401D01*
X0011700Y0020600D02*
X0012850Y0021750D01*
X0010800Y0020600D02*
X0011700D01*
X0013150Y0025900D02*
X0014150Y0024900D01*
X0025017Y0035500D02*
X0025050D01*
X0028150Y0039000D02*
X0028200D01*
X0007600Y0017700D02*
X0010250D01*
X0001600Y0019700D02*
X0003200D01*
X0003900Y0020400D01*
X0000400Y0020900D02*
X0001600Y0019700D01*
X0000400Y0020900D02*
Y0024800D01*
X0001900Y0026300D01*
X0004195D01*
X0004200D01*
X0027028Y0033895D02*
X0028200Y0035067D01*
Y0039050D01*
Y0039000D02*
X0028250Y0039050D01*
X0028200D02*
X0028250D01*
X0027181Y0033525D02*
X0028900Y0035243D01*
Y0040400D01*
X0028150Y0041150D02*
X0028900Y0040400D01*
D52*
X0027617Y0016900D02*
X0028150D01*
Y0017700D01*
X0027617D01*
X0028150Y0017300D02*
X0027883D01*
X0027350Y0017034D02*
X0027217Y0016900D01*
X0026950D01*
X0026817Y0017034D01*
Y0017567D01*
X0026950Y0017700D01*
X0027217D01*
X0027350Y0017567D01*
Y0017034D01*
X0025751D02*
X0025617Y0016900D01*
X0025351D01*
X0025218Y0017034D01*
Y0017567D01*
X0025351Y0017700D01*
X0025617D01*
X0025751Y0017567D01*
Y0017034D01*
X0024951D02*
X0024818Y0016900D01*
X0024551D01*
X0024418Y0017034D01*
Y0017567D01*
X0024551Y0017700D01*
X0024818D01*
X0024951Y0017567D01*
Y0017034D01*
X0024151D02*
X0024018Y0016900D01*
X0023751D01*
X0023618Y0017034D01*
Y0017167D01*
X0023751Y0017300D01*
X0023885D01*
X0023751D01*
X0023618Y0017433D01*
Y0017567D01*
X0023751Y0017700D01*
X0024018D01*
X0024151Y0017567D01*
X0022818Y0016900D02*
X0023085Y0017034D01*
X0023352Y0017300D01*
Y0017567D01*
X0023218Y0017700D01*
X0022952D01*
X0022818Y0017567D01*
Y0017433D01*
X0022952Y0017300D01*
X0023352D01*
X0022552Y0017034D02*
X0022419Y0016900D01*
X0022152D01*
X0022019Y0017034D01*
Y0017167D01*
X0022152Y0017300D01*
X0022019Y0017433D01*
Y0017567D01*
X0022152Y0017700D01*
X0022419D01*
X0022552Y0017567D01*
Y0017433D01*
X0022419Y0017300D01*
X0022552Y0017167D01*
Y0017034D01*
X0022419Y0017300D02*
X0022152D01*
X0021219Y0016900D02*
X0021485Y0017034D01*
X0021752Y0017300D01*
Y0017567D01*
X0021619Y0017700D01*
X0021352D01*
X0021219Y0017567D01*
Y0017433D01*
X0021352Y0017300D01*
X0021752D01*
X0020153Y0017034D02*
X0020019Y0016900D01*
X0019753D01*
X0019619Y0017034D01*
Y0017567D01*
X0019753Y0017700D01*
X0020019D01*
X0020153Y0017567D01*
Y0017034D01*
X0019353D02*
X0019220Y0016900D01*
X0018953D01*
X0018820Y0017034D01*
Y0017567D01*
X0018953Y0017700D01*
X0019220D01*
X0019353Y0017567D01*
Y0017034D01*
D53*
X0055950Y0009450D02*
D03*
D54*
X0050950D02*
D03*
D55*
X0030810Y0004400D02*
D03*
X0032810D02*
D03*
X0034810D02*
D03*
X0036810D02*
D03*
X0038810D02*
D03*
X0040810D02*
D03*
X0042810D02*
D03*
D56*
X0042551Y0017000D02*
D03*
X0004195Y0026300D02*
D03*
X0010800Y0020600D02*
D03*
X0011595Y0023500D02*
D03*
X0004300Y0018600D02*
D03*
X0013400Y0028200D02*
D03*
X0010300Y0026600D02*
D03*
X0002300Y0021000D02*
D03*
X0001795Y0024000D02*
D03*
X0012200Y0017900D02*
D03*
X0007600Y0017700D02*
D03*
D57*
X0014350Y0007000D02*
X0030900D01*
M02*
